…
| Evaluate penguins with no quotes, and use tab-completion to save typing!

> library(askpass)

| Not quite! Try again. Or, type info() for more options.

| Evaluate penguins with no quotes, and use tab-completion to save typing!

> library(penguins)
Error in library(penguins) : there is no package called ‘penguins’
> penguins(tibble)
Error in penguins(tibble) : could not find function "penguins"
> penguins
# A tibble: 344 × 8
   species island    bill_length_mm bill_depth_mm flipper_length_mm body_mass_g sex  
   <fct>   <fct>              <dbl>         <dbl>             <int>       <int> <fct>
 1 Adelie  Torgersen           39.1          18.7               181        3750 male 
 2 Adelie  Torgersen           39.5          17.4               186        3800 fema…
 3 Adelie  Torgersen           40.3          18                 195        3250 fema…
 4 Adelie  Torgersen           NA            NA                  NA          NA NA   
 5 Adelie  Torgersen           36.7          19.3               193        3450 fema…
 6 Adelie  Torgersen           39.3          20.6               190        3650 male 
 7 Adelie  Torgersen           38.9          17.8               181        3625 fema…
 8 Adelie  Torgersen           39.2          19.6               195        4675 male 
 9 Adelie  Torgersen           34.1          18.1               193        3475 NA   
10 Adelie  Torgersen           42            20.2               190        4250 NA   
# ℹ 334 more rows
# ℹ 1 more variable: year <int>
# ℹ Use `print(n = ...)` to see more rows
…
> 
> as_tibble()
Error:
! The `x` argument of `as_tibble()` can't be missing as of tibble 3.0.0.
Run `rlang::last_trace()` to see where the error occurred.
> as_tibble(tidyverse)
Error: object 'tidyverse' not found
> as_tibble()
Error:
! The `x` argument of `as_tibble()` can't be missing as of tibble 3.0.0.
Run `rlang::last_trace()` to see where the error occurred.
> as_tibble(iris)
# A tibble: 150 × 5
   Sepal.Length Sepal.Width Petal.Length Petal.Width Species
          <dbl>       <dbl>        <dbl>       <dbl> <fct>  
 1          5.1         3.5          1.4         0.2 setosa 
 2          4.9         3            1.4         0.2 setosa 
 3          4.7         3.2          1.3         0.2 setosa 
 4          4.6         3.1          1.5         0.2 setosa 
 5          5           3.6          1.4         0.2 setosa 
 6          5.4         3.9          1.7         0.4 setosa 
 7          4.6         3.4          1.4         0.3 setosa 
 8          5           3.4          1.5         0.2 setosa 
 9          4.4         2.9          1.4         0.2 setosa 
10          4.9         3.1          1.5         0.1 setosa 
# ℹ 140 more rows
# ℹ Use `print(n = ...)` to see more rows
…
...

  |===================          |  67%
| To illustrate, inspect the value of the built-in R data-frame mtcars

> 
> 
> as_tibble()
Error:
! The `x` argument of `as_tibble()` can't be missing as of tibble 3.0.0.
Run `rlang::last_trace()` to see where the error occurred.
> as_tibble(mtcars)
# A tibble: 32 × 11
     mpg   cyl  disp    hp  drat    wt  qsec    vs    am  gear  carb
   <dbl> <dbl> <dbl> <dbl> <dbl> <dbl> <dbl> <dbl> <dbl> <dbl> <dbl>
 1  21       6  160    110  3.9   2.62  16.5     0     1     4     4
 2  21       6  160    110  3.9   2.88  17.0     0     1     4     4
 3  22.8     4  108     93  3.85  2.32  18.6     1     1     4     1
 4  21.4     6  258    110  3.08  3.22  19.4     1     0     3     1
 5  18.7     8  360    175  3.15  3.44  17.0     0     0     3     2
 6  18.1     6  225    105  2.76  3.46  20.2     1     0     3     1
 7  14.3     8  360    245  3.21  3.57  15.8     0     0     3     4
 8  24.4     4  147.    62  3.69  3.19  20       1     0     4     2
 9  22.8     4  141.    95  3.92  3.15  22.9     1     0     4     2
10  19.2     6  168.   123  3.92  3.44  18.3     1     0     4     4
# ℹ 22 more rows
# ℹ Use `print(n = ...)` to see more rows

| Not quite right, but keep trying. Or, type info() for more options.

| Evaluate mtcars

> tibble(mtcars)
# A tibble: 32 × 11
     mpg   cyl  disp    hp  drat    wt  qsec    vs    am  gear  carb
   <dbl> <dbl> <dbl> <dbl> <dbl> <dbl> <dbl> <dbl> <dbl> <dbl> <dbl>
 1  21       6  160    110  3.9   2.62  16.5     0     1     4     4
 2  21       6  160    110  3.9   2.88  17.0     0     1     4     4
 3  22.8     4  108     93  3.85  2.32  18.6     1     1     4     1
 4  21.4     6  258    110  3.08  3.22  19.4     1     0     3     1
 5  18.7     8  360    175  3.15  3.44  17.0     0     0     3     2
 6  18.1     6  225    105  2.76  3.46  20.2     1     0     3     1
 7  14.3     8  360    245  3.21  3.57  15.8     0     0     3     4
 8  24.4     4  147.    62  3.69  3.19  20       1     0     4     2
 9  22.8     4  141.    95  3.92  3.15  22.9     1     0     4     2
10  19.2     6  168.   123  3.92  3.44  18.3     1     0     4     4
# ℹ 22 more rows
# ℹ Use `print(n = ...)` to see more rows
…
| That's a job well done!

  |====================         |  69%
| See how the model names appear as row-names? If you call as_tibble() on this
| data-frame, by default the row-names are dropped. Try it.

> 
> 
> as_tibble()
Error:
! The `x` argument of `as_tibble()` can't be missing as of tibble 3.0.0.
Run `rlang::last_trace()` to see where the error occurred.
> as_tibble(mtcars)
# A tibble: 32 × 11
     mpg   cyl  disp    hp  drat    wt  qsec    vs    am  gear  carb
   <dbl> <dbl> <dbl> <dbl> <dbl> <dbl> <dbl> <dbl> <dbl> <dbl> <dbl>
 1  21       6  160    110  3.9   2.62  16.5     0     1     4     4
 2  21       6  160    110  3.9   2.88  17.0     0     1     4     4
 3  22.8     4  108     93  3.85  2.32  18.6     1     1     4     1
 4  21.4     6  258    110  3.08  3.22  19.4     1     0     3     1
 5  18.7     8  360    175  3.15  3.44  17.0     0     0     3     2
 6  18.1     6  225    105  2.76  3.46  20.2     1     0     3     1
 7  14.3     8  360    245  3.21  3.57  15.8     0     0     3     4
 8  24.4     4  147.    62  3.69  3.19  20       1     0     4     2
 9  22.8     4  141.    95  3.92  3.15  22.9     1     0     4     2
10  19.2     6  168.   123  3.92  3.44  18.3     1     0     4     4
# ℹ 22 more rows
# ℹ Use `print(n = ...)` to see more rows
…
  |=====================        |  71%
| Now use up-arrow command line editing to recall the last command, only now add the
| optional argument rownames="model" to move the row-name information into a column.

> 
> rownames = "model"

| Nice try, but that's not exactly what I was hoping for. Try again. Or, type info()
| for more options.

| Evaluate as_tibble(mtcars,rownames="model")

> 
> as_tibble(mtcars, rownames = "model")
# A tibble: 32 × 12
   model              mpg   cyl  disp    hp  drat    wt  qsec    vs    am  gear  carb
   <chr>            <dbl> <dbl> <dbl> <dbl> <dbl> <dbl> <dbl> <dbl> <dbl> <dbl> <dbl>
 1 Mazda RX4         21       6  160    110  3.9   2.62  16.5     0     1     4     4
 2 Mazda RX4 Wag     21       6  160    110  3.9   2.88  17.0     0     1     4     4
 3 Datsun 710        22.8     4  108     93  3.85  2.32  18.6     1     1     4     1
 4 Hornet 4 Drive    21.4     6  258    110  3.08  3.22  19.4     1     0     3     1
 5 Hornet Sportabo…  18.7     8  360    175  3.15  3.44  17.0     0     0     3     2
 6 Valiant           18.1     6  225    105  2.76  3.46  20.2     1     0     3     1
 7 Duster 360        14.3     8  360    245  3.21  3.57  15.8     0     0     3     4
 8 Merc 240D         24.4     4  147.    62  3.69  3.19  20       1     0     4     2
 9 Merc 230          22.8     4  141.    95  3.92  3.15  22.9     1     0     4     2
10 Merc 280          19.2     6  168.   123  3.92  3.44  18.3     1     0     4     4
# ℹ 22 more rows
# ℹ Use `print(n = ...)` to see more rows
…
...

  |=======================      |  79%
| We'll use tidyverse pipelines soon, but for now to illustrate, evaluate the R
| expression
| 
| penguins |> filter(sex == "male" & island == "Torgersen")

> 
> 
> penguins |> filter(sex == "male" & island == "Torgersen")
# A tibble: 23 × 8
   species island    bill_length_mm bill_depth_mm flipper_length_mm body_mass_g sex  
   <fct>   <fct>              <dbl>         <dbl>             <int>       <int> <fct>
 1 Adelie  Torgersen           39.1          18.7               181        3750 male 
 2 Adelie  Torgersen           39.3          20.6               190        3650 male 
 3 Adelie  Torgersen           39.2          19.6               195        4675 male 
 4 Adelie  Torgersen           38.6          21.2               191        3800 male 
 5 Adelie  Torgersen           34.6          21.1               198        4400 male 
 6 Adelie  Torgersen           42.5          20.7               197        4500 male 
 7 Adelie  Torgersen           46            21.5               194        4200 male 
 8 Adelie  Torgersen           41.8          19.4               198        4450 male 
 9 Adelie  Torgersen           39.7          18.4               190        3900 male 
10 Adelie  Torgersen           45.8          18.9               197        4150 male 
# ℹ 13 more rows
# ℹ 1 more variable: year <int>
# ℹ Use `print(n = ...)` to see more rows
…
