DSC 011 Sp25 Lab 13 v3: R/tidyverse Pipelines for Statistical Analysis of Baby Names Data
…
t.test(c(1,15,24),conf.level = 0.99)$conf.int[1]

[1] -53.07995

The fastest way to compute interval estimates for mean ranks in the top200 data would be to go back and modify the base-R code that computes the mean_rank_by_name_and_sex data-frame, but this base-R code is too complicated to read and to edit, especially given the complications of modifying it to use calls to t.test().

Let’s start by regenerating this data summary using a tidyverse pipeline instead. It’s remarkably simple and readable, and shows off the advantages of the tidyverse.

baby_clean_tidy |> group_by(name,sex) |> summarize(mean_rank=mean(rank))

`summarise()` has grouped output by 'name'. You can override using the
`.groups` argument.

# A tibble: 1,236 × 3
# Groups:   name [1,209]
   name    sex   mean_rank
   <chr>   <chr>     <dbl>
 1 Aaliyah girl       68  
 2 Aaron   boy       103. 
 3 Abbie   girl      197  
 4 Abby    girl      194  
 5 Abel    boy       177  
 6 Abigail girl       50.8
 7 Abraham boy       176. 
 8 Ada     girl       91.6
 9 Adalyn  girl      169  
10 Adalynn girl      154  
# ℹ 1,226 more rows
…
Extend the tidyverse pipeline with a call to arrange() on mean_rank to sort by mean_rank.

Save the return value as a new object called names_by_mean_rank_conf.

When you are confident you have solved this problem, copy your assignment expression in the code chunk below to test it.

baby_clean_tidy |> 
  group_by(name,sex) |> 
  summarize(mean_rank=mean(rank))

`summarise()` has grouped output by 'name'. You can override using the
`.groups` argument.

# A tibble: 1,236 × 3
# Groups:   name [1,209]
   name    sex   mean_rank
   <chr>   <chr>     <dbl>
 1 Aaliyah girl       68  
 2 Aaron   boy       103. 
 3 Abbie   girl      197  
 4 Abby    girl      194  
 5 Abel    boy       177  
 6 Abigail girl       50.8
 7 Abraham boy       176. 
 8 Ada     girl       91.6
 9 Adalyn  girl      169  
10 Adalynn girl      154  
# ℹ 1,226 more rows
…
